ST558 Assignment 09
…
Convert Date into an actual Date if applicable.

Turn character variables Seasons, Holiday, and Functioning Day into factors.

Rename all variables to have easy-to-use names.

# Perform actions for steps 3, 4, and 5 at once:
df <- df |>
  mutate(Date=as.Date(Date, "%d/%m/%Y"),
         across(c(Seasons, Holiday, `Functioning Day`), factor)) |>
  janitor::clean_names()
df

# A tibble: 8,760 × 14
   date       rented_bike_count  hour temperature_c humidity_percent
   <date>                 <dbl> <dbl>         <dbl>            <dbl>
 1 2017-12-01               254     0          -5.2               37
 2 2017-12-01               204     1          -5.5               38
 3 2017-12-01               173     2          -6                 39
 4 2017-12-01               107     3          -6.2               40
 5 2017-12-01                78     4          -6                 36
 6 2017-12-01               100     5          -6.4               37
 7 2017-12-01               181     6          -6.6               35
 8 2017-12-01               460     7          -7.4               38
 9 2017-12-01               930     8          -7.6               37
10 2017-12-01               490     9          -6.5               27
# ℹ 8,750 more rows
# ℹ 9 more variables: wind_speed_m_s <dbl>, visibility_10m <dbl>,
#   dew_point_temperature_c <dbl>, solar_radiation_mj_m2 <dbl>,
#   rainfall_mm <dbl>, snowfall_cm <dbl>, seasons <fct>, holiday <fct>,
#   functioning_day <fct>
…
Find the mean of all weather-related variables.

# Obtain the sums of `rented_bike_count`, `rainfall`, and `snowfall` for each date.
# additionally -- the mean of any "weather-related" variables. Which is essentially all the numeric variables we aren't grouping by.

data <- df |> 
  group_by(date, seasons, holiday) |>
  summarize(across(c(rented_bike_count, rainfall_mm, snowfall_cm), list(sum=sum), .names="{.col}_{.fn}"),
            across(where(is.numeric) & !ends_with("sum"), list(mean=mean), .names="{.col}_{.fn}"), 
            .groups="keep") |>
  select(-rented_bike_count_mean, -hour_mean) # Remove the specific unnecessary columns.
data

# A tibble: 353 × 14
# Groups:   date, seasons, holiday [353]
   date       seasons holiday    rented_bike_count_sum rainfall_mm_sum
   <date>     <fct>   <fct>                      <dbl>           <dbl>
 1 2017-12-01 Winter  No Holiday                  9539             0  
 2 2017-12-02 Winter  No Holiday                  8523             0  
 3 2017-12-03 Winter  No Holiday                  7222             4  
 4 2017-12-04 Winter  No Holiday                  8729             0.1
 5 2017-12-05 Winter  No Holiday                  8307             0  
 6 2017-12-06 Winter  No Holiday                  6669             1.3
 7 2017-12-07 Winter  No Holiday                  8549             0  
 8 2017-12-08 Winter  No Holiday                  8032             0  
 9 2017-12-09 Winter  No Holiday                  7233             0  
10 2017-12-10 Winter  No Holiday                  3453             4.1
# ℹ 343 more rows
# ℹ 9 more variables: snowfall_cm_sum <dbl>, temperature_c_mean <dbl>,
#   humidity_percent_mean <dbl>, wind_speed_m_s_mean <dbl>,
#   visibility_10m_mean <dbl>, dew_point_temperature_c_mean <dbl>,
#   solar_radiation_mj_m2_mean <dbl>, rainfall_mm_mean <dbl>,
#   snowfall_cm_mean <dbl>
…
# A tibble: 2 × 4
  .metric .estimator .estimate .config        
  <chr>   <chr>          <dbl> <chr>          
1 rmse    standard       0.354 pre0_mod0_post0
2 rsq     standard       0.878 pre0_mod0_post0

The final coefficient table can be obtained using extract_fit_parsnip() and tidy().

coef_table <- full_training |>
  extract_fit_parsnip() |>
  tidy()
coef_table

# A tibble: 44 × 5
   term                         estimate std.error statistic  p.value
   <chr>                           <dbl>     <dbl>     <dbl>    <dbl>
 1 (Intercept)                  19.8     15.9          1.24  2.15e- 1
 2 date                         -0.00113  0.000894    -1.27  2.06e- 1
 3 rainfall_mm_sum              -0.709    0.230       -3.08  2.35e- 3
 4 snowfall_cm_sum              -0.0150   0.0187      -0.800 4.25e- 1
 5 temperature_c_mean            0.377    0.372        1.01  3.12e- 1
 6 humidity_percent_mean        -0.112    0.126       -0.890 3.74e- 1
 7 wind_speed_m_s_mean          -0.0495   0.0185      -2.68  7.97e- 3
 8 visibility_10m_mean           0.0447   0.0238       1.88  6.14e- 2
 9 dew_point_temperature_c_mean  0.195    0.423        0.461 6.46e- 1
10 solar_radiation_mj_m2_mean    0.234    0.0327       7.14  1.18e-11
# ℹ 34 more rows
…
# Creation of the tuning grid
tree_grid <- grid_regular(cost_complexity(), tree_depth(), levels = c(10, 5))

# Tune these by fitting to the CV-Folds
tree_fits <- tree_wkfl |>
  tune_grid(resamples=bike_train_10fold, grid=tree_grid)
tree_fits |> collect_metrics()

# A tibble: 100 × 8
   cost_complexity tree_depth .metric .estimator  mean     n std_err .config    
             <dbl>      <int> <chr>   <chr>      <dbl> <int>   <dbl> <chr>      
 1    0.0000000001          1 rmse    standard   0.684    10  0.0408 pre0_mod01…
 2    0.0000000001          1 rsq     standard   0.537    10  0.0458 pre0_mod01…
 3    0.0000000001          4 rmse    standard   0.463    10  0.0240 pre0_mod02…
 4    0.0000000001          4 rsq     standard   0.785    10  0.0201 pre0_mod02…
 5    0.0000000001          8 rmse    standard   0.403    10  0.0207 pre0_mod03…
 6    0.0000000001          8 rsq     standard   0.841    10  0.0148 pre0_mod03…
 7    0.0000000001         11 rmse    standard   0.403    10  0.0207 pre0_mod04…
 8    0.0000000001         11 rsq     standard   0.841    10  0.0148 pre0_mod04…
 9    0.0000000001         15 rmse    standard   0.403    10  0.0207 pre0_mod05…
10    0.0000000001         15 rsq     standard   0.841    10  0.0148 pre0_mod05…
# ℹ 90 more rows
…
For LASSO and MLR, report final coefficient table.

For the regression tree model, give a plot of the final fit.

For the bagged tree and random forest models, produce a variable importance plot.

Find the overall best model, and fit this to the entire data set.

The final coefficient tables, utilizing the same coefficient table from Assignment 08 and replicating for the LASSO method:

# MLR, From assignment 08
coef_table

# A tibble: 44 × 5
   term                         estimate std.error statistic  p.value
   <chr>                           <dbl>     <dbl>     <dbl>    <dbl>
 1 (Intercept)                  19.8     15.9          1.24  2.15e- 1
 2 date                         -0.00113  0.000894    -1.27  2.06e- 1
 3 rainfall_mm_sum              -0.709    0.230       -3.08  2.35e- 3
 4 snowfall_cm_sum              -0.0150   0.0187      -0.800 4.25e- 1
 5 temperature_c_mean            0.377    0.372        1.01  3.12e- 1
 6 humidity_percent_mean        -0.112    0.126       -0.890 3.74e- 1
 7 wind_speed_m_s_mean          -0.0495   0.0185      -2.68  7.97e- 3
 8 visibility_10m_mean           0.0447   0.0238       1.88  6.14e- 2
 9 dew_point_temperature_c_mean  0.195    0.423        0.461 6.46e- 1
10 solar_radiation_mj_m2_mean    0.234    0.0327       7.14  1.18e-11
# ℹ 34 more rows
…
